MP2
…
## The following object is masked from 'package:base':
## 
##     date

load("house_elections.rda")
load("candidates.rda")
load("committees.rda")
load("contributions.rda")

contributions_filtered <- contributions %>%
  select(transaction_type, transaction_amt, cand_id, transaction_dt) %>%
  filter(transaction_type != "24A")
contributions_filtered

## # A tibble: 343,300 x 4
##    transaction_type transaction_amt cand_id   transaction_dt
##    <chr>                      <dbl> <chr>     <chr>         
##  1 24K                         2400 H8MN06047 02252011      
##  2 24K                         1000 H2OH17109 02012011      
##  3 24K                         1000 H4KY01040 02012011      
##  4 24K                         2500 H2MD05155 02222011      
##  5 24K                         1000 H0ND00135 02282011      
##  6 24K                         5000 H0MI10071 02082011      
##  7 24K                         1000 S6MN00267 02042011      
##  8 24K                         1000 H4IA05102 02162011      
##  9 24K                         2500 H6MI04113 02162011      
## 10 24K                         2500 S0CO00211 12222010      
## #  with 343,290 more rows

contributions_filtered$transaction_dt <- contributions_filtered$transaction_dt %>%
  mdy()

candidates_filtered <- candidates %>%
  select(cand_id, cand_party_affiliation)%>%
  filter(cand_party_affiliation == "REP"| cand_party_affiliation == "DEM")
candidates_filtered

## # A tibble: 4,356 x 2
##    cand_id   cand_party_affiliation
##    <chr>     <chr>                 
##  1 H0AK00089 DEM                   
##  2 H0AK00097 REP                   
##  3 H0AL01030 REP                   
##  4 H0AL02087 REP                   
##  5 H0AL05049 DEM                   
##  6 H0AL05155 REP                   
##  7 H0AL05163 REP                   
##  8 H0AL05189 DEM                   
##  9 H0AL05197 DEM                   
## 10 H0AL06088 REP                   
## #  with 4,346 more rows

donations_by_party <- contributions_filtered %>%
  left_join(candidates_filtered, by = "cand_id") %>%
  select(transaction_dt, transaction_amt, cand_party_affiliation) %>%
  filter(cand_party_affiliation == "REP"| cand_party_affiliation == "DEM") %>%
  mutate(year = year(transaction_dt)) %>%
  filter(year == 2011 | year == 2012)
donations_by_party

## # A tibble: 337,776 x 4
##    transaction_dt transaction_amt cand_party_affiliation  year
##    <date>                   <dbl> <chr>                  <dbl>
##  1 2011-02-25                2400 REP                     2011
##  2 2011-02-01                1000 DEM                     2011
##  3 2011-02-01                1000 REP                     2011
##  4 2011-02-22                2500 DEM                     2011
##  5 2011-02-28                1000 REP                     2011
##  6 2011-02-08                5000 REP                     2011
##  7 2011-02-04                1000 DEM                     2011
##  8 2011-02-16                1000 REP                     2011
##  9 2011-02-16                2500 REP                     2011
## 10 2011-02-15                1000 REP                     2011
## #  with 337,766 more rows
…
