MiniProject2_final
…
Load data sets

load("house_elections.rda")
load("candidates.rda")
load("committees.rda")
load("contributions.rda")

Create a table that will display transaction type, transaction amount, candidates ID, transaction date, and zipcode of donator and filter out all the independent expenditures opposing the election of a candidate

contributions_filtered <- contributions %>%
  select(transaction_type, transaction_amt, cand_id, transaction_dt, zip_code) %>%
  filter(transaction_type != "24A", transaction_amt >= "0")
contributions_filtered

## # A tibble: 335,670 x 5
##    transaction_type transaction_amt cand_id   transaction_dt zip_code
##    <chr>                      <dbl> <chr>     <chr>          <chr>   
##  1 24K                         2400 H8MN06047 02252011       55337   
##  2 24K                         1000 H2OH17109 02012011       20013   
##  3 24K                         1000 H4KY01040 02012011       20005   
##  4 24K                         2500 H2MD05155 02222011       20716   
##  5 24K                         1000 H0ND00135 02282011       58106   
##  6 24K                         5000 H0MI10071 02082011       48640   
##  7 24K                         1000 S6MN00267 02042011       55104   
##  8 24K                         1000 H4IA05102 02162011       50525   
##  9 24K                         2500 H6MI04113 02162011       49085   
## 10 24K                         2500 S0CO00211 12222010       80201   
## #  with 335,660 more rows

Arrange the transaction dates in contributions_filtered so that it displays as month, day, year

contributions_filtered$transaction_dt <- contributions_filtered$transaction_dt %>%
  mdy()

Create a table that will display candidates ID and candidates party and filter out all parties that are not democrat or republican

candidates_filtered <- candidates %>%
  select(cand_id, cand_party_affiliation)%>%
  filter(cand_party_affiliation == "REP"| cand_party_affiliation == "DEM")
candidates_filtered

## # A tibble: 4,356 x 2
##    cand_id   cand_party_affiliation
##    <chr>     <chr>                 
##  1 H0AK00089 DEM                   
##  2 H0AK00097 REP                   
##  3 H0AL01030 REP                   
##  4 H0AL02087 REP                   
##  5 H0AL05049 DEM                   
##  6 H0AL05155 REP                   
##  7 H0AL05163 REP                   
##  8 H0AL05189 DEM                   
##  9 H0AL05197 DEM                   
## 10 H0AL06088 REP                   
## #  with 4,346 more rows

Create a table by left-joining candidates_filtered to contributions_filtered then make columns from zip code, transaction date, transaction amount, and candidates party. Filter this data so that only democratic and republican candidates are displayed. Mutate the data so that the transaction date and year are displayed and filter out all the years that are not 2011 or 2012.

donations_by_party <- contributions_filtered %>%
  left_join(candidates_filtered, by = "cand_id") %>%
  select(zip_code, transaction_dt, transaction_amt, cand_party_affiliation) %>%
  filter(cand_party_affiliation == "REP"| cand_party_affiliation == "DEM") %>%
  mutate(year = year(transaction_dt)) %>%
  filter(year == 2011 | year == 2012)
donations_by_party

## # A tibble: 330,563 x 5
##    zip_code transaction_dt transaction_amt cand_party_affiliation  year
##    <chr>    <date>                   <dbl> <chr>                  <dbl>
##  1 55337    2011-02-25                2400 REP                     2011
##  2 20013    2011-02-01                1000 DEM                     2011
##  3 20005    2011-02-01                1000 REP                     2011
##  4 20716    2011-02-22                2500 DEM                     2011
##  5 58106    2011-02-28                1000 REP                     2011
##  6 48640    2011-02-08                5000 REP                     2011
##  7 55104    2011-02-04                1000 DEM                     2011
##  8 50525    2011-02-16                1000 REP                     2011
##  9 49085    2011-02-16                2500 REP                     2011
## 10 04104    2011-02-15                1000 REP                     2011
## #  with 330,553 more rows

Create a table that will show the zip code of a dontation, which party that donor gave to, and the total that donor gave.

donation_locations <- donations_by_party %>%
  group_by(zip_code, cand_party_affiliation) %>%
  summarise(total = sum(transaction_amt))
donation_locations

## # A tibble: 5,861 x 3
## # Groups:   zip_code [5,027]
##    zip_code cand_party_affiliation    total
##    <chr>    <chr>                     <dbl>
##  1 ""       DEM                    18972029
##  2 ""       REP                     8233645
##  3 00082    DEM                        2000
##  4 00822    DEM                       11400
##  5 00823    DEM                      165500
##  6 00906    DEM                        1000
##  7 00907    DEM                        1044
##  8 00931    DEM                        3012
##  9 00936    DEM                        2500
## 10 00960    DEM                        2000
## #  with 5,851 more rows
…
